971662 983426 427
397652 489785 449
543299 215750 470
941496 961538 414
168358 174431 347
55796 978304 525
96471 614634 470
106678 622266 470
858761 20126 525
682803 192424 509
197603 779403 509
247422 335778 407
546966 990759 525
493815 274721 449
383310 694719 509
622478 901621 525
227192 426235 449
520683 419665 470
849693 571716 525
867305 435905 525
398057 983575 525
822141 626502 504
512375 886072 525
81210 524120 470
893297 484671 525
891436 244744 525
904594 568970 525
870642 243501 525
452290 851277 525
414752 488597 444
642447 736876 504
365220 842724 525
203650 143405 383
705135 826581 468
541405 583005 452
317766 285163 389
95113 796056 509
554763 881569 525
729755 208943 509
727558 237112 509
629112 781841 504
383054 610982 470
772129 32795 509
751342 699313 504
28727 808326 509
669818 10767 509
481289 944492 525
576524 772938 509
325590 101144 443
581325 526629 452
850895 92375 525
538169 608966 452
909092 50645 525
530203 227686 470
422907 61204 449
835143 261724 509
267979 650726 509
80823 459485 449
811795 7714 509
20496 15077 279
204990 162592 365
591902 544330 452
316061 49747 443
412753 27457 449
341803 387308 441
320433 101751 443
161675 60261 383
444433 521951 470
35576 93309 351
863090 707736 525
246051 6284 443
677762 635939 442
577537 896721 525
633567 204945 509
417555 657221 509
444003 706669 509
89629 739885 509
685890 635891 442
644834 816864 504
115735 966666 525
561668 256296 470
162635 95746 383
158066 2649 383
229414 481464 449
38728 514755 470
173868 665775 509
150945 569025 470
352628 818627 509
37060 541627 470
900814 572187 525
844024 261973 525
850994 359915 525
535935 125900 470
681273 987732 525
921480 932840 476
220026 148927 386
955002 569392 525
115349 86589 354
820891 144532 509
999772 854017 507
797814 142403 509
602708 743860 509
768019 245885 509
893678 954044 507
343913 397549 441
964953 512601 525
163244 727398 509
597729 715549 509
741515 119132 509
973773 594314 525
263719 848136 525
967959 241498 525
980120 942325 458
763907 933035 525
758209 659615 504
466994 945637 525
570352 285503 470
798347 870717 525
465140 447227 444
152161 157259 383
395429 813730 509
952018 578865 525
921391 552545 525
662498 507210 509
22247 427449 449
289080 972706 525
627893 572608 509
552632 822713 509
351443 103936 443
287167 501916 449
628104 214056 509
671671 668890 336
685352 438797 509
783529 3428 509
185920 591163 470
345525 234367 407
8353 157898 383
196464 987241 525
133706 954930 525
863639 891188 445
779550 615609 509
516786 691825 509
604975 313063 470
368053 367539 286
270150 514085 470
727263 845330 525
675253 53027 509
782766 228743 509
764923 360536 509
44248 212900 383
800752 63459 509
384401 633022 509
453549 114449 449
888819 499688 525
166453 250541 443
50148 286448 443
659018 936493 525
926385 930780 476
57262 734203 509
276364 931988 525
802882 334960 509
128132 675664 509
881090 704299 525
930342 956546 507
743237 580110 509
356898 40639 443
241515 819948 509
996482 407386 525
201173 168287 365
652854 679069 442
410810 307651 449
102984 162869 383
38279 45574 314
28588 550294 470
581678 871844 525
565075 209945 470
317687 146409 443
50980 232433 443
432471 211416 449
256619 372170 441
107479 776154 509
201511 216124 373
520422 189843 470
72526 24770 340
177260 269256 443
262612 552641 470
729145 701855 504
134483 895694 525
155115 547043 470
725509 194252 509
410168 540035 470
887538 549479 525
823020 525493 509
763554 483508 509
657166 789068 504
42445 449848 449
356844 629013 509
748131 962227 525
938762 546384 525
968460 990013 458
489463 133652 449
622506 831834 509
816680 444311 509
590271 548323 434
355799 573604 470
299206 182386 443
184074 274056 443
787332 389271 509
386069 704421 509
421517 740717 509
201110 261861 443
470096 361862 449
747179 525994 509
646546 537639 509
796304 672875 504
310400 234995 407
535080 309842 470
24472 979057 525
595287 615550 447
352642 905266 525
924046 12751 525
295312 674518 509
506862 921245 525
79978 428456 449
579260 7993 470
182695 452463 449
297071 473646 449
202683 749991 509
119974 999627 525
691561 478764 509
398363 12232 443
951608 479343 525
591368 796903 509
739202 29384 509
982560 908851 507
422421 88268 449
929701 268630 525
190710 888861 525
931169 148618 525
225256 815233 509
440117 696606 509
476462 289615 449
922889 824909 525
350655 338003 441
317924 593772 470
103965 362602 443
135886 257456 443
713783 297906 509
884721 805143 525
766062 41918 509
